<?xml version="1.0" encoding="UTF-8"?>
<!--
SPDX-FileCopyrightText: 2020 Romain Vigier <contact AT romainvigier.fr>
SPDX-License-Identifier: CC-BY-SA-4.0
-->
<svg width="16" height="16" version="1.1" viewBox="0 0 16 16" xmlns="http://www.w3.org/2000/svg"><path d="m3 0c-0.554 0-1 0.446-1 1v14c0 0.554 0.446 1 1 1h10c0.554 0 1-0.446 1-1v-11l-4-4zm1 2h5v4h3v8h-8zm3 5v2h-2v2h2v2h2v-2h2v-2h-2v-2z"/></svg>
